{
  extends: ['config:base'],
  timezone: 'Europe/Zurich',
  schedule: 'after 5pm on the first day of the month',
  labels: ['dependencies'],
  separateMajorMinor: true,
  separateMinorPatch: true,
  prHourlyLimit: 0,
  prConcurrentLimit: 0,
  labels: ['dependencies'],
  lockFileMaintenance: {
    enabled: true,
    automerge: true,
    schedule: 'after 5pm on the first day of the month',
  },
  'pre-commit': { enabled: true },
  osvVulnerabilityAlerts: true,
  vulnerabilityAlerts: {
    schedule: ['at any time'],
    automerge: true,
  },
  regexManagers: [
    {
      fileMatch: ['^.pre-commit-config\\.yaml$'],
      matchStrings: [" +- '?(?<depName>[^' @=]+)(@|==)(?<currentValue>[^' @=]+)'? # (?<datasource>.+)"],
    },
    {
      fileMatch: ['^ci/config\\.yaml$'],
      matchStrings: [
        '.*https://raw\\.githubusercontent\\.com/(?<depName>[^\\s]+)/(?<currentValue>[0-9\\.]+)/.*',
      ],
      datasourceTemplate: 'github-tags',
    },
  ],
  packageRules: [
    /** Automerge the patch, the minor and the dev dependency */
    {
      matchDepTypes: ['devDependencies'],
      automerge: true,
    },
    /** Group the patch and the minor */
    {
      matchUpdateTypes: ['patch'],
      groupName: 'all patch versions',
      automerge: true,
    },
    {
      matchUpdateTypes: ['minor'],
      groupName: 'all minor versions',
      automerge: true,
    },
    /** Group Poetry packages */
    {
      matchPackageNames: ['poetry', 'pip'],
      matchPackagePrefixes: ['poetry-'],
      groupName: 'Poetry',
      automerge: true,
      separateMajorMinor: false,
      separateMinorPatch: false,
    },
    {
      matchPackageNames: ['shellcheck-py/shellcheck-py'],
      versioning: 'regex:^v(?<major>\\d+)\\.(?<minor>\\d+)\\.(?<patch>\\d+)\\.(?<build>\\d+)$',
    },
  ],
}
